{
  "success": true,
  "firstName": "Nupur",
  "lastName": "Khanna",
  "dateOfBirth": "1992-03-05",
  "gender": "Male",
  "maritalStatus": "",
  "staff": "False",
  "ageProof": "",
  "ipAddress": null,
  "branchCode": "YESB0000738",
  "sourceCode": null,
  "illustration": "",
  "premiumSummary": {
    "productType": "TRADITIONAL",
    "productName": "Group Loan Secure",
    "productCode": "GL1",
    "state": "0",
    "city": "0",
    "modeOfPayment": "",
    "premiumPaymentOption": "Single Pay",
    "premiumPaymentTerm": "1",
    "loanType": "2",
    "masterCode": "CSME0002",
    "option": "1",
    "age": "28",
    "annualPremium": "1700",
    "term": "24",
    "deathBenefit": "400000",
    "basePremium": "748",
    "coverageOption": "REDUCED",
    "adbrPremium": "0",
    "abrPremium": "0",
    "cirPremium": "724",
    "tpdPremium": "228",
    "ibrPremium": "0",
    "wopPremium": "0",
    "premiumInstallment": "1700",
    "premiumInstallmentWithTax": "2006",
    "serviceTax": "306",
    "eduCess": "0",
    "krishiKalyan": "0",
    "totalFirstPremium": "2006",
    "totalFirstPremiumShow": "2006",
    "annualPremiumwithoutTax": "1700",
    "annualPremiumWithTax": "2006",
    "adbSumAssured": "0",
    "cirSumAssured": "400000",
    "tpdSumAssured": "400000",
    "serviceTaxUS": "0",
    "eduCessUS": "0",
    "krishiKalyanUS": "0",
    "modalPremium": "748",
    "salesChannel": "0",
    "statisticalCode": "",
    "benefitOption": "2",
    "loanTenure": "60",
    "loanAmount": "400000"
  },
  "errorCode": "E00",
  "errorMessage": "Success"
}
