{
  "mergeResult": {
    "calculated_variables": {},
    "decison": {
      "reject_review": false,
      "reasons": [
        "pol sal deviation check is false",
        "pol_perfios_qde_company_match is False"
      ],
      "data_required_tag": "EMAIL",
      "executed_stage": "Banking",
      "status": "Accept"
    },
    "eligibility": {}
  }
}
