[
  {
    "applicationId": "50015840",
    "transactionCode": "0a419083-b89d-4507-87cd-916928921c9a",
    "cuid": "1000002459",
    "analysisData": {
      "customerInfo": {
        "name": "TUSHAR   GARG",
        "address": "HOUSE NO 772,GROUND,HOUSE NO 772 ,SECTOR 5, , SALWAN MONTESSORI SCHOOL GURGAON, HARYANA, 122001",
        "landline": "",
        "mobile": "XXXXXX7418",
        "email": "XXXXXXXXXXXXXXXX@gmail.com",
        "pan": "",
        "perfiosTransactionId": "YNLH1597921024516",
        "customerTransactionId": "0a419083-b89d-4507-87cd-916928921c9a",
        "bank": "ICICI Bank, India",
        "instId": 22.0
      },
      "summaryInfo": {
        "instName": "ICICI Bank, India",
        "accNo": "055801533478",
        "accType": "Savings",
        "fullMonthCount": 3.0,
        "total": {
          "bal10": 220942.21,
          "bal15": 218000.21,
          "bal20": 161565.76,
          "bal25": 143552.76,
          "bal5": 301045.23,
          "balAvg": 230157.43,
          "balLast": 385563.67,
          "balMax": 461254.78,
          "balMin": 126186.67,
          "belowMinBalPenalties": 0.0,
          "cashDeposits": 0.0,
          "cashWithdrawals": 3.0,
          "chqDeposits": 0.0,
          "chqIssues": 0.0,
          "credits": 9.0,
          "debits": 68.0,
          "emiOrLoans": 3.0,
          "inwBounces": 0.0,
          "inwChqBounces": 0.0,
          "loanDisbursals": 3.0,
          "outwBounces": 0.0,
          "outwChqBounces": 0.0,
          "salaries": 0.0,
          "totalCashDeposit": 0.0,
          "totalCashWithdrawal": 9000.0,
          "totalChqDeposit": 0.0,
          "totalChqIssue": 0.0,
          "totalCredit": 355783.0,
          "totalDebit": 356365.58,
          "totalEmiOrLoan": 34500.0,
          "totalLoanDisbursal": 305250.0,
          "totalSalary": 0.0
        },
        "average": {
          "bal10": 73647.4,
          "bal15": 72666.74,
          "bal20": 53855.25,
          "bal25": 47850.92,
          "bal5": 100348.41,
          "balAvg": 76719.14,
          "balLast": 128521.22,
          "balMax": 153751.59,
          "balMin": 42062.22,
          "belowMinBalPenalties": 0.0,
          "cashDeposits": 0.0,
          "cashWithdrawals": 1.0,
          "chqDeposits": 0.0,
          "chqIssues": 0.0,
          "credits": 3.0,
          "debits": 23.0,
          "emiOrLoans": 1.0,
          "inwBounces": 0.0,
          "inwChqBounces": 0.0,
          "loanDisbursals": 1.0,
          "outwBounces": 0.0,
          "outwChqBounces": 0.0,
          "salaries": 0.0,
          "totalCashDeposit": 0.0,
          "totalCashWithdrawal": 3000.0,
          "totalChqDeposit": 0.0,
          "totalChqIssue": 0.0,
          "totalCredit": 118594.33,
          "totalDebit": 118788.53,
          "totalEmiOrLoan": 11500.0,
          "totalLoanDisbursal": 101750.0,
          "totalSalary": 0.0
        }
      },
      "monthlyDetails": [
        {
          "bal10": 57990.71,
          "bal15": 56490.71,
          "bal20": 51744.26,
          "bal25": 35744.26,
          "bal5": 57989.71,
          "balAvg": 59980.81,
          "balLast": 124494.26,
          "balMax": 135994.26,
          "balMin": 34244.26,
          "belowMinBalPenalties": 0.0,
          "cashDeposits": 0.0,
          "cashWithdrawals": 1.0,
          "chqDeposits": 0.0,
          "chqIssues": 0.0,
          "credits": 2.0,
          "debits": 18.0,
          "emiOrLoans": 1.0,
          "inwBounces": 0.0,
          "inwChqBounces": 0.0,
          "loanDisbursals": 1.0,
          "monthName": "May-20",
          "outwBounces": 0.0,
          "outwChqBounces": 0.0,
          "salaries": 0.0,
          "startDate": "2020-05-01",
          "totalCashDeposit": 0.0,
          "totalCashWithdrawal": 3000.0,
          "totalChqDeposit": 0.0,
          "totalChqIssue": 0.0,
          "totalCredit": 101751.0,
          "totalDebit": 84598.47,
          "totalEmiOrLoan": 11500.0,
          "totalLoanDisbursal": 101750.0,
          "totalSalary": 0.0
        },
        {
          "bal10": 72378.26,
          "bal15": 72378.26,
          "bal20": 71435.26,
          "bal25": 70055.26,
          "bal5": 103509.26,
          "balAvg": 86785.23,
          "balLast": 154310.26,
          "balMax": 170950.26,
          "balMin": 70055.26,
          "belowMinBalPenalties": 0.0,
          "cashDeposits": 0.0,
          "cashWithdrawals": 0.0,
          "chqDeposits": 0.0,
          "chqIssues": 0.0,
          "credits": 3.0,
          "debits": 18.0,
          "emiOrLoans": 1.0,
          "inwBounces": 0.0,
          "inwChqBounces": 0.0,
          "loanDisbursals": 1.0,
          "monthName": "Jun-20",
          "outwBounces": 0.0,
          "outwChqBounces": 0.0,
          "salaries": 0.0,
          "startDate": "2020-06-01",
          "totalCashDeposit": 0.0,
          "totalCashWithdrawal": 0.0,
          "totalChqDeposit": 0.0,
          "totalChqIssue": 0.0,
          "totalCredit": 102244.0,
          "totalDebit": 72428.0,
          "totalEmiOrLoan": 11500.0,
          "totalLoanDisbursal": 101750.0,
          "totalSalary": 0.0
        },
        {
          "bal10": 90573.24,
          "bal15": 89131.24,
          "bal20": 38386.24,
          "bal25": 37753.24,
          "bal5": 139546.26,
          "balAvg": 83391.39,
          "balLast": 106759.15,
          "balMax": 154310.26,
          "balMin": 21887.15,
          "belowMinBalPenalties": 0.0,
          "cashDeposits": 0.0,
          "cashWithdrawals": 2.0,
          "chqDeposits": 0.0,
          "chqIssues": 0.0,
          "credits": 4.0,
          "debits": 32.0,
          "emiOrLoans": 1.0,
          "inwBounces": 0.0,
          "inwChqBounces": 0.0,
          "loanDisbursals": 1.0,
          "monthName": "Jul-20",
          "outwBounces": 0.0,
          "outwChqBounces": 0.0,
          "salaries": 0.0,
          "startDate": "2020-07-01",
          "totalCashDeposit": 0.0,
          "totalCashWithdrawal": 6000.0,
          "totalChqDeposit": 0.0,
          "totalChqIssue": 0.0,
          "totalCredit": 151788.0,
          "totalDebit": 199339.11,
          "totalEmiOrLoan": 11500.0,
          "totalLoanDisbursal": 101750.0,
          "totalSalary": 0.0
        }
      ],
      "eODBalances": [
        {
          "date": "2020-05-01",
          "balance": 107341.73
        },
        {
          "date": "2020-05-02",
          "balance": 63489.71
        },
        {
          "date": "2020-05-03",
          "balance": 63489.71
        },
        {
          "date": "2020-05-04",
          "balance": 57989.71
        },
        {
          "date": "2020-05-05",
          "balance": 57989.71
        },
        {
          "date": "2020-05-06",
          "balance": 57990.71
        },
        {
          "date": "2020-05-07",
          "balance": 57990.71
        },
        {
          "date": "2020-05-08",
          "balance": 57990.71
        },
        {
          "date": "2020-05-09",
          "balance": 57990.71
        },
        {
          "date": "2020-05-10",
          "balance": 57990.71
        },
        {
          "date": "2020-05-11",
          "balance": 57490.71
        },
        {
          "date": "2020-05-12",
          "balance": 56990.71
        },
        {
          "date": "2020-05-13",
          "balance": 56990.71
        },
        {
          "date": "2020-05-14",
          "balance": 56990.71
        },
        {
          "date": "2020-05-15",
          "balance": 56490.71
        },
        {
          "date": "2020-05-16",
          "balance": 52590.71
        },
        {
          "date": "2020-05-17",
          "balance": 52590.71
        },
        {
          "date": "2020-05-18",
          "balance": 52590.71
        },
        {
          "date": "2020-05-19",
          "balance": 51744.26
        },
        {
          "date": "2020-05-20",
          "balance": 51744.26
        },
        {
          "date": "2020-05-21",
          "balance": 37244.26
        },
        {
          "date": "2020-05-22",
          "balance": 36744.26
        },
        {
          "date": "2020-05-23",
          "balance": 36744.26
        },
        {
          "date": "2020-05-24",
          "balance": 36744.26
        },
        {
          "date": "2020-05-25",
          "balance": 35744.26
        },
        {
          "date": "2020-05-26",
          "balance": 35244.26
        },
        {
          "date": "2020-05-27",
          "balance": 35244.26
        },
        {
          "date": "2020-05-28",
          "balance": 34244.26
        },
        {
          "date": "2020-05-29",
          "balance": 135994.26
        },
        {
          "date": "2020-05-30",
          "balance": 124494.26
        },
        {
          "date": "2020-05-31",
          "balance": 124494.26
        },
        {
          "date": "2020-06-01",
          "balance": 123494.26
        },
        {
          "date": "2020-06-02",
          "balance": 123509.26
        },
        {
          "date": "2020-06-03",
          "balance": 123509.26
        },
        {
          "date": "2020-06-04",
          "balance": 103509.26
        },
        {
          "date": "2020-06-05",
          "balance": 103509.26
        },
        {
          "date": "2020-06-06",
          "balance": 100870.26
        },
        {
          "date": "2020-06-07",
          "balance": 100870.26
        },
        {
          "date": "2020-06-08",
          "balance": 72378.26
        },
        {
          "date": "2020-06-09",
          "balance": 72378.26
        },
        {
          "date": "2020-06-10",
          "balance": 72378.26
        },
        {
          "date": "2020-06-11",
          "balance": 72378.26
        },
        {
          "date": "2020-06-12",
          "balance": 72378.26
        },
        {
          "date": "2020-06-13",
          "balance": 72378.26
        },
        {
          "date": "2020-06-14",
          "balance": 72378.26
        },
        {
          "date": "2020-06-15",
          "balance": 72378.26
        },
        {
          "date": "2020-06-16",
          "balance": 71435.26
        },
        {
          "date": "2020-06-17",
          "balance": 71435.26
        },
        {
          "date": "2020-06-18",
          "balance": 71435.26
        },
        {
          "date": "2020-06-19",
          "balance": 71435.26
        },
        {
          "date": "2020-06-20",
          "balance": 71435.26
        },
        {
          "date": "2020-06-21",
          "balance": 71435.26
        },
        {
          "date": "2020-06-22",
          "balance": 70555.26
        },
        {
          "date": "2020-06-23",
          "balance": 70555.26
        },
        {
          "date": "2020-06-24",
          "balance": 70055.26
        },
        {
          "date": "2020-06-25",
          "balance": 70055.26
        },
        {
          "date": "2020-06-26",
          "balance": 70055.26
        },
        {
          "date": "2020-06-27",
          "balance": 70055.26
        },
        {
          "date": "2020-06-28",
          "balance": 70055.26
        },
        {
          "date": "2020-06-29",
          "balance": 170950.26
        },
        {
          "date": "2020-06-30",
          "balance": 154310.26
        },
        {
          "date": "2020-07-01",
          "balance": 154310.26
        },
        {
          "date": "2020-07-02",
          "balance": 154099.26
        },
        {
          "date": "2020-07-03",
          "balance": 154137.26
        },
        {
          "date": "2020-07-04",
          "balance": 139546.26
        },
        {
          "date": "2020-07-05",
          "balance": 139546.26
        },
        {
          "date": "2020-07-06",
          "balance": 100896.26
        },
        {
          "date": "2020-07-07",
          "balance": 100573.24
        },
        {
          "date": "2020-07-08",
          "balance": 90573.24
        },
        {
          "date": "2020-07-09",
          "balance": 90573.24
        },
        {
          "date": "2020-07-10",
          "balance": 90573.24
        },
        {
          "date": "2020-07-11",
          "balance": 90573.24
        },
        {
          "date": "2020-07-12",
          "balance": 90573.24
        },
        {
          "date": "2020-07-13",
          "balance": 89131.24
        },
        {
          "date": "2020-07-14",
          "balance": 89131.24
        },
        {
          "date": "2020-07-15",
          "balance": 89131.24
        },
        {
          "date": "2020-07-16",
          "balance": 89131.24
        },
        {
          "date": "2020-07-17",
          "balance": 89131.24
        },
        {
          "date": "2020-07-18",
          "balance": 88386.24
        },
        {
          "date": "2020-07-19",
          "balance": 88386.24
        },
        {
          "date": "2020-07-20",
          "balance": 38386.24
        },
        {
          "date": "2020-07-21",
          "balance": 38386.24
        },
        {
          "date": "2020-07-22",
          "balance": 37886.24
        },
        {
          "date": "2020-07-23",
          "balance": 37753.24
        },
        {
          "date": "2020-07-24",
          "balance": 37753.24
        },
        {
          "date": "2020-07-25",
          "balance": 37753.24
        },
        {
          "date": "2020-07-26",
          "balance": 37753.24
        },
        {
          "date": "2020-07-27",
          "balance": 26887.15
        },
        {
          "date": "2020-07-28",
          "balance": 26887.15
        },
        {
          "date": "2020-07-29",
          "balance": 21887.15
        },
        {
          "date": "2020-07-30",
          "balance": 118637.15
        },
        {
          "date": "2020-07-31",
          "balance": 106759.15
        }
      ],
      "top5FundsReceived": [
        {
          "month": "May-20",
          "category": "Loan Disbursed",
          "amount": 101750.0
        },
        {
          "month": "May-20",
          "category": "Transfer in",
          "amount": 1.0
        },
        {
          "month": "Jun-20",
          "category": "Loan Disbursed",
          "amount": 101750.0
        },
        {
          "month": "Jul-20",
          "category": "Loan Disbursed",
          "amount": 101750.0
        },
        {
          "month": "Jul-20",
          "category": "Transfer in",
          "amount": 50038.0
        }
      ],
      "eMILOANXns": [
        {
          "date": "2020-05-30",
          "chqNo": "",
          "narration": "ACH/COIN SIP/7D4CISJJIN68",
          "amount": -11500.0,
          "category": "Transfer to COIN SIP",
          "balance": 124494.26
        },
        {
          "date": "2020-06-30",
          "chqNo": "",
          "narration": "ACH/COIN SIP/XYQPLHGUV29Q",
          "amount": -11500.0,
          "category": "Transfer to COIN SIP",
          "balance": 159310.26
        },
        {
          "date": "2020-07-31",
          "chqNo": "",
          "narration": "ACH/COIN SIP/9KBAVL9B8UKP",
          "amount": -11500.0,
          "category": "Transfer to COIN SIP",
          "balance": 106759.15
        }
      ],
      "loanDisbursalXns": [
        {
          "date": "2020-05-29",
          "chqNo": "",
          "narration": "NEFT-005292115186-CLIX FINANCE INDIA UNLTD 432-100",
          "amount": 101750.0,
          "category": "Loan Disbursed",
          "balance": 135994.26
        },
        {
          "date": "2020-06-29",
          "chqNo": "",
          "narration": "NEFT-006298462107-CLIX FINANCE INDIA UNLTD 432-100",
          "amount": 101750.0,
          "category": "Loan Disbursed",
          "balance": 170950.26
        },
        {
          "date": "2020-07-30",
          "chqNo": "",
          "narration": "NEFT-007306555983-CLIX FINANCE INDIA UNLTD 432-100",
          "amount": 101750.0,
          "category": "Loan Disbursed",
          "balance": 118637.15
        }
      ],
      "top5FundsTransferred": [
        {
          "month": "May-20",
          "category": "Credit Card Payment",
          "amount": 25852.02
        },
        {
          "month": "May-20",
          "category": "Transfer to surbhi08@kotak",
          "amount": 18000.0
        },
        {
          "month": "May-20",
          "category": "Transfer to VINEET VINA",
          "amount": 14500.0
        },
        {
          "month": "May-20",
          "category": "Transfer to COIN SIP",
          "amount": 11500.0
        },
        {
          "month": "May-20",
          "category": "Transfer to Wallet",
          "amount": 4000.0
        },
        {
          "month": "Jun-20",
          "category": "Credit Card Payment",
          "amount": 28492.0
        },
        {
          "month": "Jun-20",
          "category": "Transfer out",
          "amount": 18639.0
        },
        {
          "month": "Jun-20",
          "category": "Transfer to COIN SIP",
          "amount": 11500.0
        },
        {
          "month": "Jun-20",
          "category": "Investment Expense",
          "amount": 5000.0
        },
        {
          "month": "Jun-20",
          "category": "Transfer to Wallet",
          "amount": 2520.0
        },
        {
          "month": "Jul-20",
          "category": "Investment Expense",
          "amount": 140000.0
        },
        {
          "month": "Jul-20",
          "category": "Transfer to surbhi08@kotak",
          "amount": 15450.0
        },
        {
          "month": "Jul-20",
          "category": "Credit Card Payment",
          "amount": 12609.09
        },
        {
          "month": "Jul-20",
          "category": "Transfer to COIN SIP",
          "amount": 11500.0
        },
        {
          "month": "Jul-20",
          "category": "Transfer to Wallet",
          "amount": 2711.0
        }
      ],
      "fCUAnalysis": {
        "possibleFraudIndicators": {},
        "behaviouralTransactionalIndicators": {
          "equalCreditDebitXns": {
            "status": "false"
          }
        }
      },
      "accountXns": [
        {
          "accountNo": "055801533478",
          "accountType": "Savings",
          "ifscCode": "ICIC0000403",
          "micrCode": "",
          "location": "CHANDIGARH-INFOSYS",
          "xns": [
            {
              "date": "2020-05-02",
              "chqNo": "",
              "narration": "UPI/012318941353/credit card bil/cred@axisb/Axis B",
              "amount": -25852.02,
              "category": "Credit Card Payment",
              "balance": 81489.71
            },
            {
              "date": "2020-05-02",
              "chqNo": "",
              "narration": "UPI/012318097486/Friends/surbhi08@kotak/",
              "amount": -18000.0,
              "category": "Transfer to surbhi08@kotak",
              "balance": 63489.71
            },
            {
              "date": "2020-05-04",
              "chqNo": "",
              "narration": "Trf to PPF 000418197085",
              "amount": -5000.0,
              "category": "Small Savings",
              "balance": 58489.71
            },
            {
              "date": "2020-05-04",
              "chqNo": "",
              "narration": "RPI/PAYTM PGSI/202005041445/012509719861/",
              "amount": -500.0,
              "category": "Transfer to Wallet",
              "balance": 57989.71
            },
            {
              "date": "2020-05-06",
              "chqNo": "",
              "narration": "MMT/IMPS/012719956452/En5YFJSWocL6W5/Razorpay S to",
              "amount": 1.0,
              "category": "Transfer in",
              "balance": 57990.71
            },
            {
              "date": "2020-05-11",
              "chqNo": "",
              "narration": "RPI/PAYTM PGSI/202005091450/013009049769/",
              "amount": -500.0,
              "category": "Transfer to Wallet",
              "balance": 57490.71
            },
            {
              "date": "2020-05-12",
              "chqNo": "",
              "narration": "RPI/PAYTM PGSI/202005121445/013309609235/",
              "amount": -500.0,
              "category": "Transfer to Wallet",
              "balance": 56990.71
            },
            {
              "date": "2020-05-15",
              "chqNo": "",
              "narration": "RPI/PAYTM PGSI/202005151444/013609353991/",
              "amount": -500.0,
              "category": "Transfer to Wallet",
              "balance": 56490.71
            },
            {
              "date": "2020-05-16",
              "chqNo": "",
              "narration": "UPI/013780633612/On tapping Pay/Q80900997@ybl/HDFC",
              "amount": -500.0,
              "category": "Transfer to Q80900997@ybl",
              "balance": 55990.71
            },
            {
              "date": "2020-05-16",
              "chqNo": "",
              "narration": "UPI/013780316062/On tapping Pay/Q80900997@ybl/HDFC",
              "amount": -400.0,
              "category": "Transfer to Q80900997@ybl",
              "balance": 55590.71
            },
            {
              "date": "2020-05-16",
              "chqNo": "",
              "narration": "ATM/SPCNR495/CASH WDL/16-05-20",
              "amount": -3000.0,
              "category": "Cash Withdrawal",
              "balance": 52590.71
            },
            {
              "date": "2020-05-19",
              "chqNo": "",
              "narration": "UPI/014097514993/Zomato payment/zomato-order@pa/Pa",
              "amount": -846.45,
              "category": "Food",
              "balance": 51744.26
            },
            {
              "date": "2020-05-21",
              "chqNo": "",
              "narration": "VPS/VINEET VINA/202005211822/014212061751/GURGAON",
              "amount": -14500.0,
              "category": "Transfer to VINEET VINA",
              "balance": 37244.26
            },
            {
              "date": "2020-05-22",
              "chqNo": "",
              "narration": "RPI/PAYTM PGSI/202005221441/014309247359/",
              "amount": -500.0,
              "category": "Transfer to Wallet",
              "balance": 36744.26
            },
            {
              "date": "2020-05-25",
              "chqNo": "",
              "narration": "RPI/PAYTM PGSI/202005231443/014409439709/",
              "amount": -500.0,
              "category": "Transfer to Wallet",
              "balance": 36244.26
            },
            {
              "date": "2020-05-25",
              "chqNo": "",
              "narration": "RPI/PAYTM PGSI/202005241444/014509268397/",
              "amount": -500.0,
              "category": "Transfer to Wallet",
              "balance": 35744.26
            },
            {
              "date": "2020-05-26",
              "chqNo": "",
              "narration": "RPI/PAYTM PGSI/202005261439/014709336465/",
              "amount": -500.0,
              "category": "Transfer to Wallet",
              "balance": 35244.26
            },
            {
              "date": "2020-05-28",
              "chqNo": "",
              "narration": "CMS/000647345383/ADTPSLSIPG__100000001003665",
              "amount": -1000.0,
              "category": "Transfer out",
              "balance": 34244.26
            },
            {
              "date": "2020-05-29",
              "chqNo": "",
              "narration": "NEFT-005292115186-CLIX FINANCE INDIA UNLTD 432-100",
              "amount": 101750.0,
              "category": "Loan Disbursed",
              "balance": 135994.26
            },
            {
              "date": "2020-05-30",
              "chqNo": "",
              "narration": "ACH/COIN SIP/7D4CISJJIN68",
              "amount": -11500.0,
              "category": "Transfer to COIN SIP",
              "balance": 124494.26
            },
            {
              "date": "2020-06-01",
              "chqNo": "",
              "narration": "UPI/015296891472/Oid202005310838/paytm-8958702@p/P",
              "amount": -500.0,
              "category": "Transfer to Wallet",
              "balance": 123994.26
            },
            {
              "date": "2020-06-01",
              "chqNo": "",
              "narration": "RPI/PAYTM PGSI/202005311443/015209089191/",
              "amount": -500.0,
              "category": "Transfer to Wallet",
              "balance": 123494.26
            },
            {
              "date": "2020-06-02",
              "chqNo": "",
              "narration": "ACH/SBI Cards and",
              "amount": 15.0,
              "category": "Dividend",
              "balance": 123509.26
            },
            {
              "date": "2020-06-04",
              "chqNo": "",
              "narration": "Trf to PPF 000418197085",
              "amount": -5000.0,
              "category": "Small Savings",
              "balance": 118509.26
            },
            {
              "date": "2020-06-04",
              "chqNo": "",
              "narration": "MMT/IMPS/015621522504/NA/RAMESHGLAN/YESB0000026",
              "amount": -15000.0,
              "category": "Transfer out",
              "balance": 103509.26
            },
            {
              "date": "2020-06-06",
              "chqNo": "",
              "narration": "MMT/IMPS/015818738046/Water and elect/RAMESHGLAN/Y",
              "amount": -2639.0,
              "category": "Transfer out",
              "balance": 100870.26
            },
            {
              "date": "2020-06-08",
              "chqNo": "",
              "narration": "UPI/015915703703/credit card bil/cred@axisb/Axis B",
              "amount": -28492.0,
              "category": "Credit Card Payment",
              "balance": 72378.26
            },
            {
              "date": "2020-06-16",
              "chqNo": "",
              "narration": "UPI/016723048190/BhartiAirtelLim/airtelin.rzp@ax/",
              "amount": -943.0,
              "category": "Utilities",
              "balance": 71435.26
            },
            {
              "date": "2020-06-22",
              "chqNo": "",
              "narration": "UPI/017312071300/Oid202006211009/paytm-8747038@p/P",
              "amount": -210.0,
              "category": "Transfer to Wallet",
              "balance": 71225.26
            },
            {
              "date": "2020-06-22",
              "chqNo": "",
              "narration": "RPI/PAYTM PGSI/202006211444/017309341487/",
              "amount": -500.0,
              "category": "Transfer to Wallet",
              "balance": 70725.26
            },
            {
              "date": "2020-06-22",
              "chqNo": "",
              "narration": "UPI/017314832465/Oid202006211536/paytm-8747038@p/P",
              "amount": -30.0,
              "category": "Transfer to Wallet",
              "balance": 70695.26
            },
            {
              "date": "2020-06-22",
              "chqNo": "",
              "narration": "UPI/017420643808/Oid202006220836/paytm-8747038@p/P",
              "amount": -140.0,
              "category": "Transfer to Wallet",
              "balance": 70555.26
            },
            {
              "date": "2020-06-24",
              "chqNo": "",
              "narration": "RPI/PAYTM PGSI/202006241441/017609768777/",
              "amount": -500.0,
              "category": "Transfer to Wallet",
              "balance": 70055.26
            },
            {
              "date": "2020-06-29",
              "chqNo": "",
              "narration": "VPS/HARISH BAKE/202006281859/018013883000/GURGAON",
              "amount": -334.0,
              "category": "Transfer to HARISH BAKE",
              "balance": 69721.26
            },
            {
              "date": "2020-06-29",
              "chqNo": "",
              "narration": "055801533478:Int.Pd:30-03-2020 to 28-06-2020",
              "amount": 479.0,
              "category": "Interest",
              "balance": 70200.26
            },
            {
              "date": "2020-06-29",
              "chqNo": "",
              "narration": "CMS/000658358080/ADTPSLSIPG__100000001003665",
              "amount": -1000.0,
              "category": "Transfer out",
              "balance": 69200.26
            },
            {
              "date": "2020-06-29",
              "chqNo": "",
              "narration": "NEFT-006298462107-CLIX FINANCE INDIA UNLTD 432-100",
              "amount": 101750.0,
              "category": "Loan Disbursed",
              "balance": 170950.26
            },
            {
              "date": "2020-06-30",
              "chqNo": "",
              "narration": "UPI/018202207532/Oid202006300845/paytm-8747038@p/P",
              "amount": -110.0,
              "category": "Transfer to Wallet",
              "balance": 170840.26
            },
            {
              "date": "2020-06-30",
              "chqNo": "",
              "narration": "UPI/018202219700/Oid202006300846/paytm-8747038@p/P",
              "amount": -30.0,
              "category": "Transfer to Wallet",
              "balance": 170810.26
            },
            {
              "date": "2020-06-30",
              "chqNo": "",
              "narration": "ACH/COIN SIP/XYQPLHGUV29Q",
              "amount": -11500.0,
              "category": "Transfer to COIN SIP",
              "balance": 159310.26
            },
            {
              "date": "2020-06-30",
              "chqNo": "",
              "narration": "UPI/018223058317/Kite deposit 06/zerodhabroking@/H",
              "amount": -5000.0,
              "category": "Investment Expense",
              "balance": 154310.26
            },
            {
              "date": "2020-07-02",
              "chqNo": "",
              "narration": "VPS/APOLLO /202007020918/018403499905/GURGAON",
              "amount": -60.0,
              "category": "Transfer to APOLLO",
              "balance": 154250.26
            },
            {
              "date": "2020-07-02",
              "chqNo": "",
              "narration": "UPI/018425448669/Oid202007020918/paytm-45116991@/P",
              "amount": -151.0,
              "category": "Transfer to Wallet",
              "balance": 154099.26
            },
            {
              "date": "2020-07-03",
              "chqNo": "",
              "narration": "CMS/PAYOUT BY INFOSYS LIMITED/INFOSYS LIMITED FNLD",
              "amount": 38.0,
              "category": "Transfer in",
              "balance": 154137.26
            },
            {
              "date": "2020-07-04",
              "chqNo": "",
              "narration": "Trf to PPF 000418197085",
              "amount": -5000.0,
              "category": "Small Savings",
              "balance": 149137.26
            },
            {
              "date": "2020-07-04",
              "chqNo": "",
              "narration": "UPI/018609727598/credit card bil/cred@axisb/Axis B",
              "amount": -8981.0,
              "category": "Credit Card Payment",
              "balance": 140156.26
            },
            {
              "date": "2020-07-04",
              "chqNo": "",
              "narration": "UPI/018650003573/Oid202007041211/paytm-8747038@p/P",
              "amount": -110.0,
              "category": "Transfer to Wallet",
              "balance": 140046.26
            },
            {
              "date": "2020-07-04",
              "chqNo": "",
              "narration": "RPI/PAYTM PGSI/202007041447/018609201107/",
              "amount": -500.0,
              "category": "Transfer to Wallet",
              "balance": 139546.26
            },
            {
              "date": "2020-07-06",
              "chqNo": "",
              "narration": "VPS/HARISH BAKE/202007051913/018713189629/GURGAON",
              "amount": -200.0,
              "category": "Transfer to HARISH BAKE",
              "balance": 139346.26
            },
            {
              "date": "2020-07-06",
              "chqNo": "",
              "narration": "NFS/MN167201/CASH WDL/05-07-20",
              "amount": -3000.0,
              "category": "Cash Withdrawal",
              "balance": 136346.26
            },
            {
              "date": "2020-07-06",
              "chqNo": "",
              "narration": "UPI/018722365436/Friends/surbhi08@kotak/",
              "amount": -15450.0,
              "category": "Transfer to surbhi08@kotak",
              "balance": 120896.26
            },
            {
              "date": "2020-07-06",
              "chqNo": "",
              "narration": "UPI/018815263684/Zerodha equity/zerodhabroking@/HD",
              "amount": -20000.0,
              "category": "Investment Expense",
              "balance": 100896.26
            },
            {
              "date": "2020-07-07",
              "chqNo": "",
              "narration": "UPI/018916172728/Payment from Ph/APOLLOENTERPRIS/Y",
              "amount": -58.02,
              "category": "Transfer to APOLLOENTERPRIS",
              "balance": 100838.24
            },
            {
              "date": "2020-07-07",
              "chqNo": "",
              "narration": "UPI/018908031354/Pay To MD Booth/BHARATPE.904222/I",
              "amount": -265.0,
              "category": "Transfer to BHARATPE.904222",
              "balance": 100573.24
            },
            {
              "date": "2020-07-08",
              "chqNo": "",
              "narration": "UPI/019013038181/Kite deposit 57/zerodhabroking@/H",
              "amount": -10000.0,
              "category": "Investment Expense",
              "balance": 90573.24
            },
            {
              "date": "2020-07-13",
              "chqNo": "",
              "narration": "RPI/PAYTM PGSI/202007131442/019509129963/",
              "amount": -500.0,
              "category": "Transfer to Wallet",
              "balance": 90073.24
            },
            {
              "date": "2020-07-13",
              "chqNo": "",
              "narration": "BIL/ONL/002029354064/Bharti Air/airtel66PL10695",
              "amount": -942.0,
              "category": "Utilities",
              "balance": 89131.24
            },
            {
              "date": "2020-07-18",
              "chqNo": "",
              "narration": "UPI/020060928949/Payment from Ph/Q78424633@ybl/Sta",
              "amount": -160.0,
              "category": "Transfer to Q78424633@ybl",
              "balance": 88971.24
            },
            {
              "date": "2020-07-18",
              "chqNo": "",
              "narration": "UPI/020018302197/Payment from Ph/paytm-46501565@/P",
              "amount": -450.0,
              "category": "Transfer to Wallet",
              "balance": 88521.24
            },
            {
              "date": "2020-07-18",
              "chqNo": "",
              "narration": "UPI/020054917936/Payment from Ph/ud7dclh4@yesban/Y",
              "amount": -135.0,
              "category": "Transfer to ud7dclh4@yesban",
              "balance": 88386.24
            },
            {
              "date": "2020-07-20",
              "chqNo": "",
              "narration": "UPI/020119135541/Coin deposit 12/zerodhabroking@/H",
              "amount": -50000.0,
              "category": "Investment Expense",
              "balance": 38386.24
            },
            {
              "date": "2020-07-21",
              "chqNo": "",
              "narration": "MMT/IMPS/020323818563/TUSHAR GAR/Development Ban",
              "amount": 1000.0,
              "category": "Transfer in",
              "balance": 39386.24
            },
            {
              "date": "2020-07-21",
              "chqNo": "",
              "narration": "MMT/IMPS/020323818566/TUSHAR GAR/Development Ban",
              "amount": 49000.0,
              "category": "Transfer in",
              "balance": 88386.24
            },
            {
              "date": "2020-07-21",
              "chqNo": "",
              "narration": "UPI/020323126645/Coin deposit 02/zerodhabroking@/H",
              "amount": -50000.0,
              "category": "Investment Expense",
              "balance": 38386.24
            },
            {
              "date": "2020-07-22",
              "chqNo": "",
              "narration": "RPI/PAYTM PGSI/202007221444/020409786425/",
              "amount": -500.0,
              "category": "Transfer to Wallet",
              "balance": 37886.24
            },
            {
              "date": "2020-07-23",
              "chqNo": "",
              "narration": "UPI/020532793401/Pay To MD Booth/BHARATPE.904222/I",
              "amount": -133.0,
              "category": "Transfer to BHARATPE.904222",
              "balance": 37753.24
            },
            {
              "date": "2020-07-27",
              "chqNo": "",
              "narration": "UPI/020714336257/credit card bil/cred@axisb/Axis B",
              "amount": -1515.0,
              "category": "Credit Card Payment",
              "balance": 36238.24
            },
            {
              "date": "2020-07-27",
              "chqNo": "",
              "narration": "NFS/MN167201/CASH WDL/25-07-20",
              "amount": -3000.0,
              "category": "Cash Withdrawal",
              "balance": 33238.24
            },
            {
              "date": "2020-07-27",
              "chqNo": "",
              "narration": "BIL/ONL/002036959438/Info Edge /retailwwwNaukri/Na",
              "amount": -1960.0,
              "category": "Online Shopping",
              "balance": 31278.24
            },
            {
              "date": "2020-07-27",
              "chqNo": "",
              "narration": "VPS/MANDI /202007261206/020806344294/GURGAON",
              "amount": -1778.0,
              "category": "Transfer to MANDI",
              "balance": 29500.24
            },
            {
              "date": "2020-07-27",
              "chqNo": "",
              "narration": "UPI/020813252904/credit card bil/cred@axisb/Axis B",
              "amount": -2113.09,
              "category": "Credit Card Payment",
              "balance": 27387.15
            },
            {
              "date": "2020-07-27",
              "chqNo": "",
              "narration": "RPI/PAYTM PGSI/202007261444/020809768055/",
              "amount": -500.0,
              "category": "Transfer to Wallet",
              "balance": 26887.15
            },
            {
              "date": "2020-07-29",
              "chqNo": "",
              "narration": "UPI/021122465850/Coin deposit 63/zerodhabroking@/H",
              "amount": -5000.0,
              "category": "Investment Expense",
              "balance": 21887.15
            },
            {
              "date": "2020-07-30",
              "chqNo": "",
              "narration": "UPI/021212003550/Kite deposit 68/zerodhabroking@/H",
              "amount": -5000.0,
              "category": "Investment Expense",
              "balance": 16887.15
            },
            {
              "date": "2020-07-30",
              "chqNo": "",
              "narration": "NEFT-007306555983-CLIX FINANCE INDIA UNLTD 432-100",
              "amount": 101750.0,
              "category": "Loan Disbursed",
              "balance": 118637.15
            },
            {
              "date": "2020-07-31",
              "chqNo": "",
              "narration": "UPI/021309780969/Payment from Ph/Q30378350@ybl/Yes",
              "amount": -378.0,
              "category": "Transfer to Q30378350@ybl",
              "balance": 118259.15
            },
            {
              "date": "2020-07-31",
              "chqNo": "",
              "narration": "ACH/COIN SIP/9KBAVL9B8UKP",
              "amount": -11500.0,
              "category": "Transfer to COIN SIP",
              "balance": 106759.15
            }
          ]
        }
      ],
      "AdditionalSummaryDetails": [
        {
          "avgBankBalanceOn5th": 100348.41,
          "avgBankBalanceOn10th": 73647.4,
          "avgBankBalanceOn15th": 72666.74,
          "avgBankBalanceOn20th": 53855.25,
          "avgBankBalanceOn25th": 47850.92,
          "avgBankBalanceOnLastDay": 128521.22,
          "avgBankBalanceOn5th10th15th20th25thAndLast": 238444.97,
          "avgBankBalanceForThePeriod": 76719.14,
          "avgSalaryCreditForLast3Months": 0.0
        }
      ]
    },
    "success": true
  },
  {
    "applicationId": "50015840",
    "transactionCode": "0a419083-b89d-4507-87cd-916928921c9a",
    "cuid": "1000002459",
    "analysisData": {
      "customerInfo": {
        "name": "Vaibhav Tyagi",
        "address": "HOUSE NO 772,GROUND,HOUSE NO 772 ,SECTOR 5, , SALWAN MONTESSORI SCHOOL GURGAON, HARYANA, 122001",
        "landline": "",
        "mobile": "XXXXXX7418",
        "email": "XXXXXXXXXXXXXXXX@gmail.com",
        "pan": "",
        "perfiosTransactionId": "YNLH1597921024516",
        "customerTransactionId": "0a419083-b89d-4507-87cd-916928921c9a",
        "bank": "HDFC Bank, India",
        "instId": 22.0
      },
      "summaryInfo": {
        "instName": "ICICI Bank, India",
        "accNo": "055801533478",
        "accType": "Savings",
        "fullMonthCount": 3.0,
        "total": {
          "bal10": 11111.21,
          "bal15": 218000.21,
          "bal20": 161565.76,
          "bal25": 143552.76,
          "bal5": 301045.23,
          "balAvg": 230157.43,
          "balLast": 385563.67,
          "balMax": 461254.78,
          "balMin": 126186.67,
          "belowMinBalPenalties": 0.0,
          "cashDeposits": 0.0,
          "cashWithdrawals": 3.0,
          "chqDeposits": 0.0,
          "chqIssues": 0.0,
          "credits": 9.0,
          "debits": 68.0,
          "emiOrLoans": 3.0,
          "inwBounces": 0.0,
          "inwChqBounces": 0.0,
          "loanDisbursals": 3.0,
          "outwBounces": 0.0,
          "outwChqBounces": 0.0,
          "salaries": 0.0,
          "totalCashDeposit": 0.0,
          "totalCashWithdrawal": 9000.0,
          "totalChqDeposit": 0.0,
          "totalChqIssue": 0.0,
          "totalCredit": 355783.0,
          "totalDebit": 356365.58,
          "totalEmiOrLoan": 34500.0,
          "totalLoanDisbursal": 305250.0,
          "totalSalary": 0.0
        },
        "average": {
          "bal10": 73647.4,
          "bal15": 72666.74,
          "bal20": 53855.25,
          "bal25": 47850.92,
          "bal5": 100348.41,
          "balAvg": 76719.14,
          "balLast": 128521.22,
          "balMax": 153751.59,
          "balMin": 42062.22,
          "belowMinBalPenalties": 0.0,
          "cashDeposits": 0.0,
          "cashWithdrawals": 1.0,
          "chqDeposits": 0.0,
          "chqIssues": 0.0,
          "credits": 3.0,
          "debits": 23.0,
          "emiOrLoans": 1.0,
          "inwBounces": 0.0,
          "inwChqBounces": 0.0,
          "loanDisbursals": 1.0,
          "outwBounces": 0.0,
          "outwChqBounces": 0.0,
          "salaries": 0.0,
          "totalCashDeposit": 0.0,
          "totalCashWithdrawal": 3000.0,
          "totalChqDeposit": 0.0,
          "totalChqIssue": 0.0,
          "totalCredit": 118594.33,
          "totalDebit": 118788.53,
          "totalEmiOrLoan": 11500.0,
          "totalLoanDisbursal": 101750.0,
          "totalSalary": 0.0
        }
      },
      "monthlyDetails": [
        {
          "bal10": 57990.71,
          "bal15": 56490.71,
          "bal20": 51744.26,
          "bal25": 35744.26,
          "bal5": 57989.71,
          "balAvg": 59980.81,
          "balLast": 124494.26,
          "balMax": 135994.26,
          "balMin": 34244.26,
          "belowMinBalPenalties": 0.0,
          "cashDeposits": 0.0,
          "cashWithdrawals": 1.0,
          "chqDeposits": 0.0,
          "chqIssues": 0.0,
          "credits": 2.0,
          "debits": 18.0,
          "emiOrLoans": 1.0,
          "inwBounces": 0.0,
          "inwChqBounces": 0.0,
          "loanDisbursals": 1.0,
          "monthName": "May-20",
          "outwBounces": 0.0,
          "outwChqBounces": 0.0,
          "salaries": 0.0,
          "startDate": "2020-05-01",
          "totalCashDeposit": 0.0,
          "totalCashWithdrawal": 3000.0,
          "totalChqDeposit": 0.0,
          "totalChqIssue": 0.0,
          "totalCredit": 101751.0,
          "totalDebit": 84598.47,
          "totalEmiOrLoan": 11500.0,
          "totalLoanDisbursal": 101750.0,
          "totalSalary": 0.0
        },
        {
          "bal10": 72378.26,
          "bal15": 72378.26,
          "bal20": 71435.26,
          "bal25": 70055.26,
          "bal5": 103509.26,
          "balAvg": 86785.23,
          "balLast": 154310.26,
          "balMax": 170950.26,
          "balMin": 70055.26,
          "belowMinBalPenalties": 0.0,
          "cashDeposits": 0.0,
          "cashWithdrawals": 0.0,
          "chqDeposits": 0.0,
          "chqIssues": 0.0,
          "credits": 3.0,
          "debits": 18.0,
          "emiOrLoans": 1.0,
          "inwBounces": 0.0,
          "inwChqBounces": 0.0,
          "loanDisbursals": 1.0,
          "monthName": "Jun-20",
          "outwBounces": 0.0,
          "outwChqBounces": 0.0,
          "salaries": 0.0,
          "startDate": "2020-06-01",
          "totalCashDeposit": 0.0,
          "totalCashWithdrawal": 0.0,
          "totalChqDeposit": 0.0,
          "totalChqIssue": 0.0,
          "totalCredit": 102244.0,
          "totalDebit": 72428.0,
          "totalEmiOrLoan": 11500.0,
          "totalLoanDisbursal": 101750.0,
          "totalSalary": 0.0
        },
        {
          "bal10": 90573.24,
          "bal15": 89131.24,
          "bal20": 38386.24,
          "bal25": 37753.24,
          "bal5": 139546.26,
          "balAvg": 83391.39,
          "balLast": 106759.15,
          "balMax": 154310.26,
          "balMin": 21887.15,
          "belowMinBalPenalties": 0.0,
          "cashDeposits": 0.0,
          "cashWithdrawals": 2.0,
          "chqDeposits": 0.0,
          "chqIssues": 0.0,
          "credits": 4.0,
          "debits": 32.0,
          "emiOrLoans": 1.0,
          "inwBounces": 0.0,
          "inwChqBounces": 0.0,
          "loanDisbursals": 1.0,
          "monthName": "Jul-20",
          "outwBounces": 0.0,
          "outwChqBounces": 0.0,
          "salaries": 0.0,
          "startDate": "2020-07-01",
          "totalCashDeposit": 0.0,
          "totalCashWithdrawal": 6000.0,
          "totalChqDeposit": 0.0,
          "totalChqIssue": 0.0,
          "totalCredit": 151788.0,
          "totalDebit": 199339.11,
          "totalEmiOrLoan": 11500.0,
          "totalLoanDisbursal": 101750.0,
          "totalSalary": 0.0
        }
      ],
      "eODBalances": [
        {
          "date": "2020-05-01",
          "balance": 107341.73
        },
        {
          "date": "2020-05-02",
          "balance": 63489.71
        },
        {
          "date": "2020-05-03",
          "balance": 63489.71
        },
        {
          "date": "2020-05-04",
          "balance": 57989.71
        },
        {
          "date": "2020-05-05",
          "balance": 57989.71
        },
        {
          "date": "2020-05-06",
          "balance": 57990.71
        },
        {
          "date": "2020-05-07",
          "balance": 57990.71
        },
        {
          "date": "2020-05-08",
          "balance": 57990.71
        },
        {
          "date": "2020-05-09",
          "balance": 57990.71
        },
        {
          "date": "2020-05-10",
          "balance": 57990.71
        },
        {
          "date": "2020-05-11",
          "balance": 57490.71
        },
        {
          "date": "2020-05-12",
          "balance": 56990.71
        },
        {
          "date": "2020-05-13",
          "balance": 56990.71
        },
        {
          "date": "2020-05-14",
          "balance": 56990.71
        },
        {
          "date": "2020-05-15",
          "balance": 56490.71
        },
        {
          "date": "2020-05-16",
          "balance": 52590.71
        },
        {
          "date": "2020-05-17",
          "balance": 52590.71
        },
        {
          "date": "2020-05-18",
          "balance": 52590.71
        },
        {
          "date": "2020-05-19",
          "balance": 51744.26
        },
        {
          "date": "2020-05-20",
          "balance": 51744.26
        },
        {
          "date": "2020-05-21",
          "balance": 37244.26
        },
        {
          "date": "2020-05-22",
          "balance": 36744.26
        },
        {
          "date": "2020-05-23",
          "balance": 36744.26
        },
        {
          "date": "2020-05-24",
          "balance": 36744.26
        },
        {
          "date": "2020-05-25",
          "balance": 35744.26
        },
        {
          "date": "2020-05-26",
          "balance": 35244.26
        },
        {
          "date": "2020-05-27",
          "balance": 35244.26
        },
        {
          "date": "2020-05-28",
          "balance": 34244.26
        },
        {
          "date": "2020-05-29",
          "balance": 135994.26
        },
        {
          "date": "2020-05-30",
          "balance": 124494.26
        },
        {
          "date": "2020-05-31",
          "balance": 124494.26
        },
        {
          "date": "2020-06-01",
          "balance": 123494.26
        },
        {
          "date": "2020-06-02",
          "balance": 123509.26
        },
        {
          "date": "2020-06-03",
          "balance": 123509.26
        },
        {
          "date": "2020-06-04",
          "balance": 103509.26
        },
        {
          "date": "2020-06-05",
          "balance": 103509.26
        },
        {
          "date": "2020-06-06",
          "balance": 100870.26
        },
        {
          "date": "2020-06-07",
          "balance": 100870.26
        },
        {
          "date": "2020-06-08",
          "balance": 72378.26
        },
        {
          "date": "2020-06-09",
          "balance": 72378.26
        },
        {
          "date": "2020-06-10",
          "balance": 72378.26
        },
        {
          "date": "2020-06-11",
          "balance": 72378.26
        },
        {
          "date": "2020-06-12",
          "balance": 72378.26
        },
        {
          "date": "2020-06-13",
          "balance": 72378.26
        },
        {
          "date": "2020-06-14",
          "balance": 72378.26
        },
        {
          "date": "2020-06-15",
          "balance": 72378.26
        },
        {
          "date": "2020-06-16",
          "balance": 71435.26
        },
        {
          "date": "2020-06-17",
          "balance": 71435.26
        },
        {
          "date": "2020-06-18",
          "balance": 71435.26
        },
        {
          "date": "2020-06-19",
          "balance": 71435.26
        },
        {
          "date": "2020-06-20",
          "balance": 71435.26
        },
        {
          "date": "2020-06-21",
          "balance": 71435.26
        },
        {
          "date": "2020-06-22",
          "balance": 70555.26
        },
        {
          "date": "2020-06-23",
          "balance": 70555.26
        },
        {
          "date": "2020-06-24",
          "balance": 70055.26
        },
        {
          "date": "2020-06-25",
          "balance": 70055.26
        },
        {
          "date": "2020-06-26",
          "balance": 70055.26
        },
        {
          "date": "2020-06-27",
          "balance": 70055.26
        },
        {
          "date": "2020-06-28",
          "balance": 70055.26
        },
        {
          "date": "2020-06-29",
          "balance": 170950.26
        },
        {
          "date": "2020-06-30",
          "balance": 154310.26
        },
        {
          "date": "2020-07-01",
          "balance": 154310.26
        },
        {
          "date": "2020-07-02",
          "balance": 154099.26
        },
        {
          "date": "2020-07-03",
          "balance": 154137.26
        },
        {
          "date": "2020-07-04",
          "balance": 139546.26
        },
        {
          "date": "2020-07-05",
          "balance": 139546.26
        },
        {
          "date": "2020-07-06",
          "balance": 100896.26
        },
        {
          "date": "2020-07-07",
          "balance": 100573.24
        },
        {
          "date": "2020-07-08",
          "balance": 90573.24
        },
        {
          "date": "2020-07-09",
          "balance": 90573.24
        },
        {
          "date": "2020-07-10",
          "balance": 90573.24
        },
        {
          "date": "2020-07-11",
          "balance": 90573.24
        },
        {
          "date": "2020-07-12",
          "balance": 90573.24
        },
        {
          "date": "2020-07-13",
          "balance": 89131.24
        },
        {
          "date": "2020-07-14",
          "balance": 89131.24
        },
        {
          "date": "2020-07-15",
          "balance": 89131.24
        },
        {
          "date": "2020-07-16",
          "balance": 89131.24
        },
        {
          "date": "2020-07-17",
          "balance": 89131.24
        },
        {
          "date": "2020-07-18",
          "balance": 88386.24
        },
        {
          "date": "2020-07-19",
          "balance": 88386.24
        },
        {
          "date": "2020-07-20",
          "balance": 38386.24
        },
        {
          "date": "2020-07-21",
          "balance": 38386.24
        },
        {
          "date": "2020-07-22",
          "balance": 37886.24
        },
        {
          "date": "2020-07-23",
          "balance": 37753.24
        },
        {
          "date": "2020-07-24",
          "balance": 37753.24
        },
        {
          "date": "2020-07-25",
          "balance": 37753.24
        },
        {
          "date": "2020-07-26",
          "balance": 37753.24
        },
        {
          "date": "2020-07-27",
          "balance": 26887.15
        },
        {
          "date": "2020-07-28",
          "balance": 26887.15
        },
        {
          "date": "2020-07-29",
          "balance": 21887.15
        },
        {
          "date": "2020-07-30",
          "balance": 118637.15
        },
        {
          "date": "2020-07-31",
          "balance": 106759.15
        }
      ],
      "top5FundsReceived": [
        {
          "month": "May-20",
          "category": "Loan Disbursed",
          "amount": 101750.0
        },
        {
          "month": "May-20",
          "category": "Transfer in",
          "amount": 1.0
        },
        {
          "month": "Jun-20",
          "category": "Loan Disbursed",
          "amount": 101750.0
        },
        {
          "month": "Jul-20",
          "category": "Loan Disbursed",
          "amount": 101750.0
        },
        {
          "month": "Jul-20",
          "category": "Transfer in",
          "amount": 50038.0
        }
      ],
      "eMILOANXns": [
        {
          "date": "2020-05-30",
          "chqNo": "",
          "narration": "ACH/COIN SIP/7D4CISJJIN68",
          "amount": -11500.0,
          "category": "Transfer to COIN SIP",
          "balance": 124494.26
        },
        {
          "date": "2020-06-30",
          "chqNo": "",
          "narration": "ACH/COIN SIP/XYQPLHGUV29Q",
          "amount": -11500.0,
          "category": "Transfer to COIN SIP",
          "balance": 159310.26
        },
        {
          "date": "2020-07-31",
          "chqNo": "",
          "narration": "ACH/COIN SIP/9KBAVL9B8UKP",
          "amount": -11500.0,
          "category": "Transfer to COIN SIP",
          "balance": 106759.15
        }
      ],
      "loanDisbursalXns": [
        {
          "date": "2020-05-29",
          "chqNo": "",
          "narration": "NEFT-005292115186-CLIX FINANCE INDIA UNLTD 432-100",
          "amount": 101750.0,
          "category": "Loan Disbursed",
          "balance": 135994.26
        },
        {
          "date": "2020-06-29",
          "chqNo": "",
          "narration": "NEFT-006298462107-CLIX FINANCE INDIA UNLTD 432-100",
          "amount": 101750.0,
          "category": "Loan Disbursed",
          "balance": 170950.26
        },
        {
          "date": "2020-07-30",
          "chqNo": "",
          "narration": "NEFT-007306555983-CLIX FINANCE INDIA UNLTD 432-100",
          "amount": 101750.0,
          "category": "Loan Disbursed",
          "balance": 118637.15
        }
      ],
      "top5FundsTransferred": [
        {
          "month": "May-20",
          "category": "Credit Card Payment",
          "amount": 25852.02
        },
        {
          "month": "May-20",
          "category": "Transfer to surbhi08@kotak",
          "amount": 18000.0
        },
        {
          "month": "May-20",
          "category": "Transfer to VINEET VINA",
          "amount": 14500.0
        },
        {
          "month": "May-20",
          "category": "Transfer to COIN SIP",
          "amount": 11500.0
        },
        {
          "month": "May-20",
          "category": "Transfer to Wallet",
          "amount": 4000.0
        },
        {
          "month": "Jun-20",
          "category": "Credit Card Payment",
          "amount": 28492.0
        },
        {
          "month": "Jun-20",
          "category": "Transfer out",
          "amount": 18639.0
        },
        {
          "month": "Jun-20",
          "category": "Transfer to COIN SIP",
          "amount": 11500.0
        },
        {
          "month": "Jun-20",
          "category": "Investment Expense",
          "amount": 5000.0
        },
        {
          "month": "Jun-20",
          "category": "Transfer to Wallet",
          "amount": 2520.0
        },
        {
          "month": "Jul-20",
          "category": "Investment Expense",
          "amount": 140000.0
        },
        {
          "month": "Jul-20",
          "category": "Transfer to surbhi08@kotak",
          "amount": 15450.0
        },
        {
          "month": "Jul-20",
          "category": "Credit Card Payment",
          "amount": 12609.09
        },
        {
          "month": "Jul-20",
          "category": "Transfer to COIN SIP",
          "amount": 11500.0
        },
        {
          "month": "Jul-20",
          "category": "Transfer to Wallet",
          "amount": 2711.0
        }
      ],
      "fCUAnalysis": {
        "possibleFraudIndicators": {},
        "behaviouralTransactionalIndicators": {
          "equalCreditDebitXns": {
            "status": "false"
          }
        }
      },
      "accountXns": [
        {
          "accountNo": "055801533478",
          "accountType": "Savings",
          "ifscCode": "ICIC0000403",
          "micrCode": "",
          "location": "CHANDIGARH-INFOSYS",
          "xns": [
            {
              "date": "2020-05-02",
              "chqNo": "",
              "narration": "UPI/012318941353/credit card bil/cred@axisb/Axis B",
              "amount": -25852.02,
              "category": "Credit Card Payment",
              "balance": 81489.71
            },
            {
              "date": "2020-05-02",
              "chqNo": "",
              "narration": "UPI/012318097486/Friends/surbhi08@kotak/",
              "amount": -18000.0,
              "category": "Transfer to surbhi08@kotak",
              "balance": 63489.71
            },
            {
              "date": "2020-05-04",
              "chqNo": "",
              "narration": "Trf to PPF 000418197085",
              "amount": -5000.0,
              "category": "Small Savings",
              "balance": 58489.71
            },
            {
              "date": "2020-05-04",
              "chqNo": "",
              "narration": "RPI/PAYTM PGSI/202005041445/012509719861/",
              "amount": -500.0,
              "category": "Transfer to Wallet",
              "balance": 57989.71
            },
            {
              "date": "2020-05-06",
              "chqNo": "",
              "narration": "MMT/IMPS/012719956452/En5YFJSWocL6W5/Razorpay S to",
              "amount": 1.0,
              "category": "Transfer in",
              "balance": 57990.71
            },
            {
              "date": "2020-05-11",
              "chqNo": "",
              "narration": "RPI/PAYTM PGSI/202005091450/013009049769/",
              "amount": -500.0,
              "category": "Transfer to Wallet",
              "balance": 57490.71
            },
            {
              "date": "2020-05-12",
              "chqNo": "",
              "narration": "RPI/PAYTM PGSI/202005121445/013309609235/",
              "amount": -500.0,
              "category": "Transfer to Wallet",
              "balance": 56990.71
            },
            {
              "date": "2020-05-15",
              "chqNo": "",
              "narration": "RPI/PAYTM PGSI/202005151444/013609353991/",
              "amount": -500.0,
              "category": "Transfer to Wallet",
              "balance": 56490.71
            },
            {
              "date": "2020-05-16",
              "chqNo": "",
              "narration": "UPI/013780633612/On tapping Pay/Q80900997@ybl/HDFC",
              "amount": -500.0,
              "category": "Transfer to Q80900997@ybl",
              "balance": 55990.71
            },
            {
              "date": "2020-05-16",
              "chqNo": "",
              "narration": "UPI/013780316062/On tapping Pay/Q80900997@ybl/HDFC",
              "amount": -400.0,
              "category": "Transfer to Q80900997@ybl",
              "balance": 55590.71
            },
            {
              "date": "2020-05-16",
              "chqNo": "",
              "narration": "ATM/SPCNR495/CASH WDL/16-05-20",
              "amount": -3000.0,
              "category": "Cash Withdrawal",
              "balance": 52590.71
            },
            {
              "date": "2020-05-19",
              "chqNo": "",
              "narration": "UPI/014097514993/Zomato payment/zomato-order@pa/Pa",
              "amount": -846.45,
              "category": "Food",
              "balance": 51744.26
            },
            {
              "date": "2020-05-21",
              "chqNo": "",
              "narration": "VPS/VINEET VINA/202005211822/014212061751/GURGAON",
              "amount": -14500.0,
              "category": "Transfer to VINEET VINA",
              "balance": 37244.26
            },
            {
              "date": "2020-05-22",
              "chqNo": "",
              "narration": "RPI/PAYTM PGSI/202005221441/014309247359/",
              "amount": -500.0,
              "category": "Transfer to Wallet",
              "balance": 36744.26
            },
            {
              "date": "2020-05-25",
              "chqNo": "",
              "narration": "RPI/PAYTM PGSI/202005231443/014409439709/",
              "amount": -500.0,
              "category": "Transfer to Wallet",
              "balance": 36244.26
            },
            {
              "date": "2020-05-25",
              "chqNo": "",
              "narration": "RPI/PAYTM PGSI/202005241444/014509268397/",
              "amount": -500.0,
              "category": "Transfer to Wallet",
              "balance": 35744.26
            },
            {
              "date": "2020-05-26",
              "chqNo": "",
              "narration": "RPI/PAYTM PGSI/202005261439/014709336465/",
              "amount": -500.0,
              "category": "Transfer to Wallet",
              "balance": 35244.26
            },
            {
              "date": "2020-05-28",
              "chqNo": "",
              "narration": "CMS/000647345383/ADTPSLSIPG__100000001003665",
              "amount": -1000.0,
              "category": "Transfer out",
              "balance": 34244.26
            },
            {
              "date": "2020-05-29",
              "chqNo": "",
              "narration": "NEFT-005292115186-CLIX FINANCE INDIA UNLTD 432-100",
              "amount": 101750.0,
              "category": "Loan Disbursed",
              "balance": 135994.26
            },
            {
              "date": "2020-05-30",
              "chqNo": "",
              "narration": "ACH/COIN SIP/7D4CISJJIN68",
              "amount": -11500.0,
              "category": "Transfer to COIN SIP",
              "balance": 124494.26
            },
            {
              "date": "2020-06-01",
              "chqNo": "",
              "narration": "UPI/015296891472/Oid202005310838/paytm-8958702@p/P",
              "amount": -500.0,
              "category": "Transfer to Wallet",
              "balance": 123994.26
            },
            {
              "date": "2020-06-01",
              "chqNo": "",
              "narration": "RPI/PAYTM PGSI/202005311443/015209089191/",
              "amount": -500.0,
              "category": "Transfer to Wallet",
              "balance": 123494.26
            },
            {
              "date": "2020-06-02",
              "chqNo": "",
              "narration": "ACH/SBI Cards and",
              "amount": 15.0,
              "category": "Dividend",
              "balance": 123509.26
            },
            {
              "date": "2020-06-04",
              "chqNo": "",
              "narration": "Trf to PPF 000418197085",
              "amount": -5000.0,
              "category": "Small Savings",
              "balance": 118509.26
            },
            {
              "date": "2020-06-04",
              "chqNo": "",
              "narration": "MMT/IMPS/015621522504/NA/RAMESHGLAN/YESB0000026",
              "amount": -15000.0,
              "category": "Transfer out",
              "balance": 103509.26
            },
            {
              "date": "2020-06-06",
              "chqNo": "",
              "narration": "MMT/IMPS/015818738046/Water and elect/RAMESHGLAN/Y",
              "amount": -2639.0,
              "category": "Transfer out",
              "balance": 100870.26
            },
            {
              "date": "2020-06-08",
              "chqNo": "",
              "narration": "UPI/015915703703/credit card bil/cred@axisb/Axis B",
              "amount": -28492.0,
              "category": "Credit Card Payment",
              "balance": 72378.26
            },
            {
              "date": "2020-06-16",
              "chqNo": "",
              "narration": "UPI/016723048190/BhartiAirtelLim/airtelin.rzp@ax/",
              "amount": -943.0,
              "category": "Utilities",
              "balance": 71435.26
            },
            {
              "date": "2020-06-22",
              "chqNo": "",
              "narration": "UPI/017312071300/Oid202006211009/paytm-8747038@p/P",
              "amount": -210.0,
              "category": "Transfer to Wallet",
              "balance": 71225.26
            },
            {
              "date": "2020-06-22",
              "chqNo": "",
              "narration": "RPI/PAYTM PGSI/202006211444/017309341487/",
              "amount": -500.0,
              "category": "Transfer to Wallet",
              "balance": 70725.26
            },
            {
              "date": "2020-06-22",
              "chqNo": "",
              "narration": "UPI/017314832465/Oid202006211536/paytm-8747038@p/P",
              "amount": -30.0,
              "category": "Transfer to Wallet",
              "balance": 70695.26
            },
            {
              "date": "2020-06-22",
              "chqNo": "",
              "narration": "UPI/017420643808/Oid202006220836/paytm-8747038@p/P",
              "amount": -140.0,
              "category": "Transfer to Wallet",
              "balance": 70555.26
            },
            {
              "date": "2020-06-24",
              "chqNo": "",
              "narration": "RPI/PAYTM PGSI/202006241441/017609768777/",
              "amount": -500.0,
              "category": "Transfer to Wallet",
              "balance": 70055.26
            },
            {
              "date": "2020-06-29",
              "chqNo": "",
              "narration": "VPS/HARISH BAKE/202006281859/018013883000/GURGAON",
              "amount": -334.0,
              "category": "Transfer to HARISH BAKE",
              "balance": 69721.26
            },
            {
              "date": "2020-06-29",
              "chqNo": "",
              "narration": "055801533478:Int.Pd:30-03-2020 to 28-06-2020",
              "amount": 479.0,
              "category": "Interest",
              "balance": 70200.26
            },
            {
              "date": "2020-06-29",
              "chqNo": "",
              "narration": "CMS/000658358080/ADTPSLSIPG__100000001003665",
              "amount": -1000.0,
              "category": "Transfer out",
              "balance": 69200.26
            },
            {
              "date": "2020-06-29",
              "chqNo": "",
              "narration": "NEFT-006298462107-CLIX FINANCE INDIA UNLTD 432-100",
              "amount": 101750.0,
              "category": "Loan Disbursed",
              "balance": 170950.26
            },
            {
              "date": "2020-06-30",
              "chqNo": "",
              "narration": "UPI/018202207532/Oid202006300845/paytm-8747038@p/P",
              "amount": -110.0,
              "category": "Transfer to Wallet",
              "balance": 170840.26
            },
            {
              "date": "2020-06-30",
              "chqNo": "",
              "narration": "UPI/018202219700/Oid202006300846/paytm-8747038@p/P",
              "amount": -30.0,
              "category": "Transfer to Wallet",
              "balance": 170810.26
            },
            {
              "date": "2020-06-30",
              "chqNo": "",
              "narration": "ACH/COIN SIP/XYQPLHGUV29Q",
              "amount": -11500.0,
              "category": "Transfer to COIN SIP",
              "balance": 159310.26
            },
            {
              "date": "2020-06-30",
              "chqNo": "",
              "narration": "UPI/018223058317/Kite deposit 06/zerodhabroking@/H",
              "amount": -5000.0,
              "category": "Investment Expense",
              "balance": 154310.26
            },
            {
              "date": "2020-07-02",
              "chqNo": "",
              "narration": "VPS/APOLLO /202007020918/018403499905/GURGAON",
              "amount": -60.0,
              "category": "Transfer to APOLLO",
              "balance": 154250.26
            },
            {
              "date": "2020-07-02",
              "chqNo": "",
              "narration": "UPI/018425448669/Oid202007020918/paytm-45116991@/P",
              "amount": -151.0,
              "category": "Transfer to Wallet",
              "balance": 154099.26
            },
            {
              "date": "2020-07-03",
              "chqNo": "",
              "narration": "CMS/PAYOUT BY INFOSYS LIMITED/INFOSYS LIMITED FNLD",
              "amount": 38.0,
              "category": "Transfer in",
              "balance": 154137.26
            },
            {
              "date": "2020-07-04",
              "chqNo": "",
              "narration": "Trf to PPF 000418197085",
              "amount": -5000.0,
              "category": "Small Savings",
              "balance": 149137.26
            },
            {
              "date": "2020-07-04",
              "chqNo": "",
              "narration": "UPI/018609727598/credit card bil/cred@axisb/Axis B",
              "amount": -8981.0,
              "category": "Credit Card Payment",
              "balance": 140156.26
            },
            {
              "date": "2020-07-04",
              "chqNo": "",
              "narration": "UPI/018650003573/Oid202007041211/paytm-8747038@p/P",
              "amount": -110.0,
              "category": "Transfer to Wallet",
              "balance": 140046.26
            },
            {
              "date": "2020-07-04",
              "chqNo": "",
              "narration": "RPI/PAYTM PGSI/202007041447/018609201107/",
              "amount": -500.0,
              "category": "Transfer to Wallet",
              "balance": 139546.26
            },
            {
              "date": "2020-07-06",
              "chqNo": "",
              "narration": "VPS/HARISH BAKE/202007051913/018713189629/GURGAON",
              "amount": -200.0,
              "category": "Transfer to HARISH BAKE",
              "balance": 139346.26
            },
            {
              "date": "2020-07-06",
              "chqNo": "",
              "narration": "NFS/MN167201/CASH WDL/05-07-20",
              "amount": -3000.0,
              "category": "Cash Withdrawal",
              "balance": 136346.26
            },
            {
              "date": "2020-07-06",
              "chqNo": "",
              "narration": "UPI/018722365436/Friends/surbhi08@kotak/",
              "amount": -15450.0,
              "category": "Transfer to surbhi08@kotak",
              "balance": 120896.26
            },
            {
              "date": "2020-07-06",
              "chqNo": "",
              "narration": "UPI/018815263684/Zerodha equity/zerodhabroking@/HD",
              "amount": -20000.0,
              "category": "Investment Expense",
              "balance": 100896.26
            },
            {
              "date": "2020-07-07",
              "chqNo": "",
              "narration": "UPI/018916172728/Payment from Ph/APOLLOENTERPRIS/Y",
              "amount": -58.02,
              "category": "Transfer to APOLLOENTERPRIS",
              "balance": 100838.24
            },
            {
              "date": "2020-07-07",
              "chqNo": "",
              "narration": "UPI/018908031354/Pay To MD Booth/BHARATPE.904222/I",
              "amount": -265.0,
              "category": "Transfer to BHARATPE.904222",
              "balance": 100573.24
            },
            {
              "date": "2020-07-08",
              "chqNo": "",
              "narration": "UPI/019013038181/Kite deposit 57/zerodhabroking@/H",
              "amount": -10000.0,
              "category": "Investment Expense",
              "balance": 90573.24
            },
            {
              "date": "2020-07-13",
              "chqNo": "",
              "narration": "RPI/PAYTM PGSI/202007131442/019509129963/",
              "amount": -500.0,
              "category": "Transfer to Wallet",
              "balance": 90073.24
            },
            {
              "date": "2020-07-13",
              "chqNo": "",
              "narration": "BIL/ONL/002029354064/Bharti Air/airtel66PL10695",
              "amount": -942.0,
              "category": "Utilities",
              "balance": 89131.24
            },
            {
              "date": "2020-07-18",
              "chqNo": "",
              "narration": "UPI/020060928949/Payment from Ph/Q78424633@ybl/Sta",
              "amount": -160.0,
              "category": "Transfer to Q78424633@ybl",
              "balance": 88971.24
            },
            {
              "date": "2020-07-18",
              "chqNo": "",
              "narration": "UPI/020018302197/Payment from Ph/paytm-46501565@/P",
              "amount": -450.0,
              "category": "Transfer to Wallet",
              "balance": 88521.24
            },
            {
              "date": "2020-07-18",
              "chqNo": "",
              "narration": "UPI/020054917936/Payment from Ph/ud7dclh4@yesban/Y",
              "amount": -135.0,
              "category": "Transfer to ud7dclh4@yesban",
              "balance": 88386.24
            },
            {
              "date": "2020-07-20",
              "chqNo": "",
              "narration": "UPI/020119135541/Coin deposit 12/zerodhabroking@/H",
              "amount": -50000.0,
              "category": "Investment Expense",
              "balance": 38386.24
            },
            {
              "date": "2020-07-21",
              "chqNo": "",
              "narration": "MMT/IMPS/020323818563/TUSHAR GAR/Development Ban",
              "amount": 1000.0,
              "category": "Transfer in",
              "balance": 39386.24
            },
            {
              "date": "2020-07-21",
              "chqNo": "",
              "narration": "MMT/IMPS/020323818566/TUSHAR GAR/Development Ban",
              "amount": 49000.0,
              "category": "Transfer in",
              "balance": 88386.24
            },
            {
              "date": "2020-07-21",
              "chqNo": "",
              "narration": "UPI/020323126645/Coin deposit 02/zerodhabroking@/H",
              "amount": -50000.0,
              "category": "Investment Expense",
              "balance": 38386.24
            },
            {
              "date": "2020-07-22",
              "chqNo": "",
              "narration": "RPI/PAYTM PGSI/202007221444/020409786425/",
              "amount": -500.0,
              "category": "Transfer to Wallet",
              "balance": 37886.24
            },
            {
              "date": "2020-07-23",
              "chqNo": "",
              "narration": "UPI/020532793401/Pay To MD Booth/BHARATPE.904222/I",
              "amount": -133.0,
              "category": "Transfer to BHARATPE.904222",
              "balance": 37753.24
            },
            {
              "date": "2020-07-27",
              "chqNo": "",
              "narration": "UPI/020714336257/credit card bil/cred@axisb/Axis B",
              "amount": -1515.0,
              "category": "Credit Card Payment",
              "balance": 36238.24
            },
            {
              "date": "2020-07-27",
              "chqNo": "",
              "narration": "NFS/MN167201/CASH WDL/25-07-20",
              "amount": -3000.0,
              "category": "Cash Withdrawal",
              "balance": 33238.24
            },
            {
              "date": "2020-07-27",
              "chqNo": "",
              "narration": "BIL/ONL/002036959438/Info Edge /retailwwwNaukri/Na",
              "amount": -1960.0,
              "category": "Online Shopping",
              "balance": 31278.24
            },
            {
              "date": "2020-07-27",
              "chqNo": "",
              "narration": "VPS/MANDI /202007261206/020806344294/GURGAON",
              "amount": -1778.0,
              "category": "Transfer to MANDI",
              "balance": 29500.24
            },
            {
              "date": "2020-07-27",
              "chqNo": "",
              "narration": "UPI/020813252904/credit card bil/cred@axisb/Axis B",
              "amount": -2113.09,
              "category": "Credit Card Payment",
              "balance": 27387.15
            },
            {
              "date": "2020-07-27",
              "chqNo": "",
              "narration": "RPI/PAYTM PGSI/202007261444/020809768055/",
              "amount": -500.0,
              "category": "Transfer to Wallet",
              "balance": 26887.15
            },
            {
              "date": "2020-07-29",
              "chqNo": "",
              "narration": "UPI/021122465850/Coin deposit 63/zerodhabroking@/H",
              "amount": -5000.0,
              "category": "Investment Expense",
              "balance": 21887.15
            },
            {
              "date": "2020-07-30",
              "chqNo": "",
              "narration": "UPI/021212003550/Kite deposit 68/zerodhabroking@/H",
              "amount": -5000.0,
              "category": "Investment Expense",
              "balance": 16887.15
            },
            {
              "date": "2020-07-30",
              "chqNo": "",
              "narration": "NEFT-007306555983-CLIX FINANCE INDIA UNLTD 432-100",
              "amount": 101750.0,
              "category": "Loan Disbursed",
              "balance": 118637.15
            },
            {
              "date": "2020-07-31",
              "chqNo": "",
              "narration": "UPI/021309780969/Payment from Ph/Q30378350@ybl/Yes",
              "amount": -378.0,
              "category": "Transfer to Q30378350@ybl",
              "balance": 118259.15
            },
            {
              "date": "2020-07-31",
              "chqNo": "",
              "narration": "ACH/COIN SIP/9KBAVL9B8UKP",
              "amount": -11500.0,
              "category": "Transfer to COIN SIP",
              "balance": 106759.15
            }
          ]
        }
      ],
      "AdditionalSummaryDetails": [
        {
          "avgBankBalanceOn5th": 12345.41,
          "avgBankBalanceOn10th": 65432.4,
          "avgBankBalanceOn15th": 72666.74,
          "avgBankBalanceOn20th": 53855.25,
          "avgBankBalanceOn25th": 47850.92,
          "avgBankBalanceOnLastDay": 128521.22,
          "avgBankBalanceOn5th10th15th20th25thAndLast": 238444.97,
          "avgBankBalanceForThePeriod": 76719.14,
          "avgSalaryCreditForLast3Months": 0.0
        }
      ]
    },
    "success": true
  },
  {
    "applicationId": "50015840",
    "transactionCode": "0a419083-b89d-4507-87cd-916928921c9a",
    "cuid": "1000002459",
    "analysisData": {
      "FinancialStatement": {
        "FY": [
          {
            "year": 2017.0,
            "ProfitAndLoss": {
              "InterestToPvtOutsideParties": 0.04267,
              "InterestPaidToBorrowersComingOnLoan": 0.0,
              "Tax": 0.0,
              "OtherNonCashExpenditurePrelimExpDefRevExp": 0.0,
              "ExtraordinaryItems": 0.0,
              "OtherIncomeNonBusinessRelated": 0.0,
              "AdministrativeExpenses": 11.93247,
              "SalaryToPartnersDirectorsNotComingOnLoan": 0.0,
              "Purchases": 100.51236,
              "Wages": 0.0,
              "BankFinanceCharges": 0.34136,
              "SalaryRentPaidToBorrowersComingOnLoan": 0.0,
              "InterestOnOdCcAC": 0.0,
              "BadDebtsWrittenOff": 0.0,
              "ClosingStock": 74.44343,
              "OtherExpenses": 0.0,
              "SalesReceipts": 102.5078,
              "OpeningStock": 48.74682,
              "InterestToPartnersDirectorsNotComingOnLoan": 0.0,
              "Depreciation": 1.85192,
              "OtherIncomeBusinessRelated": 0.0,
              "ChangesInInventories": 0.0,
              "SellingAndDistributionExpenses": 0.12942,
              "InterestToFiBanksOtherThanOdCcAC": 2.40679,
              "ManufacturingExpenses": 0.0
            },
            "BalanceSheet": {
              "Liabilities": {
                "DeferredTaxLiabilities": 0.0,
                "ReservesAndSurplusExcludingRevaluationReserve": 0.0,
                "UnsecuredLoansFromBanksFi": 0.0,
                "RevaluationReserve": 0.0,
                "WorkingCapitalLimitFromBanksFi": 39.62969,
                "Capital": 54.27434,
                "OtherLiabilities": 0.0,
                "UnsecuredLoansQuasiCapitalFromDirectorsShareholders": 0.0,
                "CurrentMaturityOfTermLoans": 4.56568,
                "SecuredLoansTermAndVehicleLoansEtc": 0.0,
                "UnsecuredLoansOthers": 0.0,
                "OtherLongTermLiabilities": 0.0,
                "SundryCreditors": 18.246
              },
              "Assets": {
                "Others": 1.93337,
                "AccumulatedDepreciation": 1.85192,
                "Inventories": 74.44343,
                "RevaluationReserve": 0.0,
                "DebtorsGt6Months": 0.0,
                "MiscellaenousExpenditureToTheExtentNotWOffPLDrBalance": 0.0,
                "GrossPlantAndMachinery": 0.0,
                "GrossFixedAssetsExclPlantAndMachinery": 12.15394,
                "DeferredTaxAssets": 0.0,
                "CashAndBank": 0.7663,
                "DoubtfulLoansAndAdvances": 0.0,
                "LoansAndAdvancesBusinessRelatedShortTerm": 0.0,
                "LoansAndAdvancesBusinessRelatedSecurityDepositsOtherLongTermAdvances": 0.0,
                "DebtorsLt6Months": 29.27059,
                "LoansAndAdvancesNonBusinessRelated": 0.0,
                "IntangibleAssets": 0.0,
                "OtherNonCurrentAssets": 0.0,
                "InvestmentsBusinessRelated": 0.0,
                "InvestmentsNonBusinessRelated": 0.0
              }
            }
          }
        ]
      }
    },
    "success": true
  }
]
